<?xml version="1.0" encoding="UTF-8" standalone="no"?>
<svg
   xmlns:dc="http://purl.org/dc/elements/1.1/"
   xmlns:cc="http://creativecommons.org/ns#"
   xmlns:rdf="http://www.w3.org/1999/02/22-rdf-syntax-ns#"
   xmlns:svg="http://www.w3.org/2000/svg"
   xmlns="http://www.w3.org/2000/svg"
   xmlns:sodipodi="http://sodipodi.sourceforge.net/DTD/sodipodi-0.dtd"
   xmlns:inkscape="http://www.inkscape.org/namespaces/inkscape"
   class="header__svg-logo header__svg-logo"
   viewBox="0 0 358.86532 98.274522"
   preserveAspectRatio="xMinYMin meet"
   width="157.95799"
   height="35.005173"
   version="1.1"
   id="svg59"
   sodipodi:docname="BitBucket_SVG_Logo.svg"
   inkscape:version="0.92.4 (5da689c313, 2019-01-14)">
  <metadata
     id="metadata63">
    <rdf:RDF>
      <cc:Work
         rdf:about="">
        <dc:format>image/svg+xml</dc:format>
        <dc:type
           rdf:resource="http://purl.org/dc/dcmitype/StillImage" />
        <dc:title>Bitbucket logo</dc:title>
      </cc:Work>
    </rdf:RDF>
  </metadata>
  <sodipodi:namedview
     pagecolor="#ffffff"
     bordercolor="#666666"
     borderopacity="1"
     objecttolerance="10"
     gridtolerance="10"
     guidetolerance="10"
     inkscape:pageopacity="0"
     inkscape:pageshadow="2"
     inkscape:window-width="1920"
     inkscape:window-height="1036"
     id="namedview61"
     showgrid="false"
     fit-margin-top="0"
     fit-margin-left="0"
     fit-margin-right="0"
     fit-margin-bottom="0"
     inkscape:zoom="2.561738"
     inkscape:cx="123.7533"
     inkscape:cy="-13.724052"
     inkscape:window-x="0"
     inkscape:window-y="22"
     inkscape:window-maximized="0"
     inkscape:current-layer="svg59" />
  <defs
     id="defs9">
    <style
       id="style2"> .logo__text__fill{fill:#253858;} .header__svg-logo__icon--path--3{fill:#2684ff;} .header__svg-logo__icon--path--4{fill:url(#logo-gradient);} </style>
    <linearGradient
       id="logo-gradient"
       gradientUnits="userSpaceOnUse"
       x1="64.010002"
       y1="65.260002"
       x2="32.990002"
       y2="89.480003">
      <stop
         stop-color="rgb(0, 82, 204)"
         offset="0.18"
         id="stop4" />
      <stop
         stop-color="rgb(38, 132, 255)"
         offset="1"
         id="stop6" />
    </linearGradient>
  </defs>
  <title
     id="title11">Bitbucket logo</title>
  <g
     class="header__svg-logo__icon"
     id="g17"
     transform="translate(0.02579294,0.00118999)">
    <path
       class="header__svg-logo__icon--path--3"
       d="m 2,41.25 a 2,2 0 0 0 -2,2.32 l 8.49,51.54 a 2.72,2.72 0 0 0 2.66,2.27 h 40.73 a 2,2 0 0 0 2,-1.68 l 8.51,-52.11 a 2,2 0 0 0 -2,-2.32 z M 37.75,78.5 h -13 L 21.23,60.12 H 40.9 Z"
       id="path13"
       inkscape:connector-curvature="0"
       style="fill:#2684ff" />
    <path
       class="header__svg-logo__icon--path--4"
       d="M 59.67,60.12 H 40.9 L 37.75,78.5 h -13 L 9.4,96.73 a 2.71,2.71 0 0 0 1.75,0.66 h 40.74 a 2,2 0 0 0 2,-1.68 z"
       id="path15"
       inkscape:connector-curvature="0"
       style="fill:url(#logo-gradient)" />
  </g>
  <g
     class="header__svg-logo__atlassian svg-hide-on-stuck"
     id="g37"
     transform="translate(0.02579294,0.00118999)">
    <path
       class="logo__text__fill"
       d="m 160.49,5.22 c 0,2.6 1.21,4.66 5.92,5.57 2.81,0.59 3.4,1 3.4,2 0,1 -0.59,1.5 -2.57,1.5 a 14.51,14.51 0 0 1 -6.83,-1.85 v 4.23 a 14,14 0 0 0 6.78,1.47 c 4.93,0 6.88,-2.2 6.88,-5.46 m 0,0 c 0,-3.08 -1.63,-4.53 -6.24,-5.52 -2.54,-0.56 -3.16,-1.12 -3.16,-1.93 0,-1 0.91,-1.45 2.6,-1.45 a 14.63,14.63 0 0 1 5.95,1.47 v -4 A 13.44,13.44 0 0 0 167.39,0 c -4.55,0 -6.91,2 -6.91,5.22"
       id="path19"
       inkscape:connector-curvature="0"
       style="fill:#253858" />
    <polygon
       class="logo__text__fill"
       points="235.39,0.27 235.39,11.62 233.97,8.33 229.71,0.27 223.79,0.27 223.79,17.86 227.54,17.86 227.54,4.45 229.12,8.01 234.43,17.86 239.14,17.86 239.14,0.27 "
       id="polygon21"
       style="fill:#253858" />
    <rect
       class="logo__text__fill"
       x="195.85001"
       y="0.27000001"
       width="4.0999999"
       height="17.6"
       id="rect23"
       style="fill:#253858" />
    <path
       class="logo__text__fill"
       d="m 191.12,12.67 c 0,-3.08 -1.63,-4.53 -6.24,-5.52 -2.54,-0.56 -3.16,-1.12 -3.16,-1.93 0,-1 0.91,-1.45 2.6,-1.45 a 14.63,14.63 0 0 1 5.95,1.47 v -4 A 13.44,13.44 0 0 0 184.45,0 c -4.55,0 -6.91,2 -6.91,5.22 0,2.6 1.21,4.66 5.92,5.57 2.81,0.59 3.4,1 3.4,2 0,1 -0.59,1.5 -2.57,1.5 a 14.51,14.51 0 0 1 -6.83,-1.85 v 4.23 a 14,14 0 0 0 6.78,1.47 c 4.93,0 6.88,-2.2 6.88,-5.46"
       id="path25"
       inkscape:connector-curvature="0"
       style="fill:#253858" />
    <polygon
       class="logo__text__fill"
       points="137.08,17.86 138.4,14.06 132.78,14.06 132.78,0.27 128.65,0.27 128.65,17.86 "
       id="polygon27"
       style="fill:#253858" />
    <polygon
       class="logo__text__fill"
       points="120.69,17.86 120.69,4.07 125.56,4.07 125.56,0.27 112.01,0.27 112.01,4.07 116.57,4.07 116.57,17.86 "
       id="polygon29"
       style="fill:#253858" />
    <path
       class="logo__text__fill"
       d="m 106,0.27 h -5.4 l -6.14,17.6 h 4.69 l 0.87,-3 a 11.65,11.65 0 0 0 6.56,0 l 0.87,3 h 4.69 z m -2.7,11.46 a 8,8 0 0 1 -2.25,-0.32 l 2.25,-7.68 2.25,7.68 a 8,8 0 0 1 -2.22,0.32 z"
       id="path31"
       inkscape:connector-curvature="0"
       style="fill:#253858" />
    <path
       class="logo__text__fill"
       d="m 151.6,0.27 h -5.4 l -6.14,17.6 h 4.69 l 0.87,-3 a 11.65,11.65 0 0 0 6.56,0 l 0.87,3 h 4.69 z m -2.7,11.46 a 8,8 0 0 1 -2.25,-0.32 l 2.25,-7.68 2.25,7.68 a 8,8 0 0 1 -2.26,0.32 z"
       id="path33"
       inkscape:connector-curvature="0"
       style="fill:#253858" />
    <path
       class="logo__text__fill"
       d="m 214.71,0.27 h -5.4 l -6.14,17.6 h 4.69 l 0.87,-3 a 11.65,11.65 0 0 0 6.56,0 l 0.87,3 h 4.69 z M 212,11.73 a 8,8 0 0 1 -2.25,-0.32 L 212,3.72 214.25,11.4 A 8,8 0 0 1 212,11.73 Z"
       id="path35"
       inkscape:connector-curvature="0"
       style="fill:#253858" />
  </g>
  <g
     class="header__svg-logo__text"
     id="g57"
     transform="translate(0.02579294,0.00118999)">
    <path
       class="logo__text__fill"
       d="m 116.87,39.57 c 11.79,0 17.51,5.81 17.51,15.14 0,7 -3.17,11.26 -9.68,12.85 8.54,1.41 12.76,6.07 12.76,14.26 0,9.24 -6.25,15.58 -19.18,15.58 H 94.43 V 39.57 Z m -14.52,7.57 v 17.24 h 13.46 c 7.48,0 10.56,-3.43 10.56,-9 0,-5.57 -3.34,-8.27 -10.56,-8.27 z m 0,24.29 v 18 h 16.19 c 7.57,0 11,-2.73 11,-8.54 0,-6.16 -3.26,-9.5 -11.17,-9.5 z"
       id="path39"
       inkscape:connector-curvature="0"
       style="fill:#253858" />
    <path
       class="logo__text__fill"
       d="m 150.4,36.49 a 4.94,4.94 0 0 1 5.28,5.28 5.28,5.28 0 0 1 -10.56,0 4.94,4.94 0 0 1 5.28,-5.28 z m -3.87,16.89 h 7.57 v 44 h -7.57 z"
       id="path41"
       inkscape:connector-curvature="0"
       style="fill:#253858" />
    <path
       class="logo__text__fill"
       d="m 183,90 a 24,24 0 0 0 4.75,-0.62 v 7.3 a 18.19,18.19 0 0 1 -5.1,0.7 c -9.42,0 -14,-5.54 -14,-13.73 V 60.42 h -7.13 v -7 h 7.13 V 44.06 H 176 v 9.33 h 11.7 v 7 H 176 v 23.09 c 0,3.87 2.29,6.52 7,6.52 z"
       id="path43"
       inkscape:connector-curvature="0"
       style="fill:#253858" />
    <path
       class="logo__text__fill"
       d="m 218.95,98.26 c -6.42,0 -11.35,-2.9 -14,-8.62 v 7.74 h -7.57 V 35 H 205 v 26.3 c 2.82,-5.81 8.1,-8.8 14.87,-8.8 11.7,0 17.6,9.94 17.6,22.88 -0.04,12.41 -6.2,22.88 -18.52,22.88 z M 217.8,59.54 c -6.8,0 -12.8,4.32 -12.8,14.08 v 3.52 c 0,9.77 5.54,14.08 12,14.08 8.54,0 12.94,-5.63 12.94,-15.84 -0.08,-10.56 -4.3,-15.84 -12.14,-15.84 z"
       id="path45"
       inkscape:connector-curvature="0"
       style="fill:#253858" />
    <path
       class="logo__text__fill"
       d="m 245.35,53.38 h 7.57 V 80 c 0,7.92 3.17,11.44 10.38,11.44 7,0 11.88,-4.66 11.88,-13.55 V 53.38 h 7.57 v 44 h -7.57 v -7.21 a 15.43,15.43 0 0 1 -13.9,8.1 c -10.12,0 -15.93,-7 -15.93,-19.1 z"
       id="path47"
       inkscape:connector-curvature="0"
       style="fill:#253858" />
    <path
       class="logo__text__fill"
       d="m 325.25,96.24 c -2.64,1.41 -6.69,2 -10.74,2 -15.66,0 -23,-9.5 -23,-23 0,-13.29 7.3,-22.79 23,-22.79 A 23.26,23.26 0 0 1 325,54.62 v 7 a 22.18,22.18 0 0 0 -10,-2.08 c -11.44,0 -16.1,7.22 -16.1,15.75 0,8.53 4.79,15.71 16.32,15.71 a 27.8,27.8 0 0 0 10,-1.58 z"
       id="path49"
       inkscape:connector-curvature="0"
       style="fill:#253858" />
    <path
       class="logo__text__fill"
       d="M 333.88,97.38 V 35 h 7.57 v 39 l 18.92,-20.59 h 9.86 L 349.54,75 371.1,97.38 H 360.8 L 341.44,76.79 v 20.59 z"
       id="path51"
       inkscape:connector-curvature="0"
       style="fill:#253858" />
    <path
       class="logo__text__fill"
       d="m 396.18,98.26 c -16.46,0 -23.67,-9.5 -23.67,-23 0,-13.29 7.39,-22.79 20.77,-22.79 13.55,0 19,9.42 19,22.79 v 3.43 h -32.12 c 1.06,7.48 5.9,12.32 16.28,12.32 a 39,39 0 0 0 13.38,-2.38 v 7 c -3.61,1.93 -9.15,2.63 -13.64,2.63 z m -16.1,-26 h 24.55 c -0.44,-8.18 -4.14,-12.85 -11.7,-12.85 -8.02,-0.04 -12.06,5.15 -12.85,12.81 z"
       id="path53"
       inkscape:connector-curvature="0"
       style="fill:#253858" />
    <path
       class="logo__text__fill"
       d="m 438.68,90 a 24,24 0 0 0 4.75,-0.62 v 7.3 a 18.19,18.19 0 0 1 -5.1,0.7 c -9.42,0 -14,-5.54 -14,-13.73 V 60.42 h -7.13 v -7 h 7.13 v -9.36 h 7.39 v 9.33 h 11.7 v 7 h -11.7 v 23.09 c 0.01,3.87 2.28,6.52 6.96,6.52 z"
       id="path55"
       inkscape:connector-curvature="0"
       style="fill:#253858" />
  </g>
</svg>
